W#03 Data Import, Data Wrangling – Data Science Concepts / Data Science Tools
…
1.10 Hotels data

Data from two hotels: one resort and one city hotel

Observations: Each row represents a hotel booking

1.11 First look on data

Type the name of the dataframe

hotels

# A tibble: 119,390 × 32
   hotel        is_canceled lead_time arrival_date_year arrival_date_month
   <chr>        <lgl>           <int>             <int> <chr>             
 1 Resort Hotel FALSE             342              2015 July              
 2 Resort Hotel FALSE             737              2015 July              
 3 Resort Hotel FALSE               7              2015 July              
 4 Resort Hotel FALSE              13              2015 July              
 5 Resort Hotel FALSE              14              2015 July              
 6 Resort Hotel FALSE              14              2015 July              
 7 Resort Hotel FALSE               0              2015 July              
 8 Resort Hotel FALSE               9              2015 July              
 9 Resort Hotel TRUE               85              2015 July              
10 Resort Hotel TRUE               75              2015 July              
# ℹ 119,380 more rows
# ℹ 27 more variables: arrival_date_week_number <int>,
#   arrival_date_day_of_month <int>, stays_in_weekend_nights <int>,
#   stays_in_week_nights <int>, adults <int>, children <int>, babies <int>,
#   meal <chr>, country <chr>, market_segment <chr>,
#   distribution_channel <chr>, is_repeated_guest <lgl>,
#   previous_cancellations <int>, previous_bookings_not_canceled <int>, …
…
mutate: add new variables

summarise: reduce variables to values

group_by: for grouped operations

… (many more)

3 Data Subsetting

3.1 select a single column

hotels |> select(lead_time)     

# A tibble: 119,390 × 1
   lead_time
       <int>
 1       342
 2       737
 3         7
 4        13
 5        14
 6        14
 7         0
 8         9
 9        85
10        75
# ℹ 119,380 more rows
…
Why does piping |> work?

Every dplyr function

takes a dataframe (tibble) as first argument

outputs a (manipulated) dataframe (tibble)

In hotel business, lead time is the time betweeen booking and arrival.

3.2 Select more columns

hotels |> select(hotel, lead_time)     

# A tibble: 119,390 × 2
   hotel        lead_time
   <chr>            <int>
 1 Resort Hotel       342
 2 Resort Hotel       737
 3 Resort Hotel         7
 4 Resort Hotel        13
 5 Resort Hotel        14
 6 Resort Hotel        14
 7 Resort Hotel         0
 8 Resort Hotel         9
 9 Resort Hotel        85
10 Resort Hotel        75
# ℹ 119,380 more rows

Note that hotel is a variable, but hotels the dataframe object name

3.3 Select helper starts_with

hotels |> select(starts_with("arrival"))

# A tibble: 119,390 × 4
   arrival_date_year arrival_date_month arrival_date_week_number
               <int> <chr>                                 <int>
 1              2015 July                                     27
 2              2015 July                                     27
 3              2015 July                                     27
 4              2015 July                                     27
 5              2015 July                                     27
 6              2015 July                                     27
 7              2015 July                                     27
 8              2015 July                                     27
 9              2015 July                                     27
10              2015 July                                     27
# ℹ 119,380 more rows
# ℹ 1 more variable: arrival_date_day_of_month <int>

3.4 Bring columns to the front

hotels |> select(hotel, market_segment, children, everything())

# A tibble: 119,390 × 32
   hotel        market_segment children is_canceled lead_time arrival_date_year
   <chr>        <chr>             <int> <lgl>           <int>             <int>
 1 Resort Hotel Direct                0 FALSE             342              2015
 2 Resort Hotel Direct                0 FALSE             737              2015
 3 Resort Hotel Direct                0 FALSE               7              2015
 4 Resort Hotel Corporate             0 FALSE              13              2015
 5 Resort Hotel Online TA             0 FALSE              14              2015
 6 Resort Hotel Online TA             0 FALSE              14              2015
 7 Resort Hotel Direct                0 FALSE               0              2015
 8 Resort Hotel Direct                0 FALSE               9              2015
 9 Resort Hotel Online TA             0 TRUE               85              2015
10 Resort Hotel Offline TA/TO         0 TRUE               75              2015
# ℹ 119,380 more rows
# ℹ 26 more variables: arrival_date_month <chr>,
#   arrival_date_week_number <int>, arrival_date_day_of_month <int>,
#   stays_in_weekend_nights <int>, stays_in_week_nights <int>, adults <int>,
#   babies <int>, meal <chr>, country <chr>, distribution_channel <chr>,
#   is_repeated_guest <lgl>, previous_cancellations <int>,
#   previous_bookings_not_canceled <int>, reserved_room_type <chr>, …
…
3.7 filter for rows with certain criteria

hotels |> filter(hotel == "City Hotel")

# A tibble: 79,330 × 32
   hotel      is_canceled lead_time arrival_date_year arrival_date_month
   <chr>      <lgl>           <int>             <int> <chr>             
 1 City Hotel FALSE               6              2015 July              
 2 City Hotel TRUE               88              2015 July              
 3 City Hotel TRUE               65              2015 July              
 4 City Hotel TRUE               92              2015 July              
 5 City Hotel TRUE              100              2015 July              
 6 City Hotel TRUE               79              2015 July              
 7 City Hotel FALSE               3              2015 July              
 8 City Hotel TRUE               63              2015 July              
 9 City Hotel TRUE               62              2015 July              
10 City Hotel TRUE               62              2015 July              
# ℹ 79,320 more rows
# ℹ 27 more variables: arrival_date_week_number <int>,
#   arrival_date_day_of_month <int>, stays_in_weekend_nights <int>,
#   stays_in_week_nights <int>, adults <int>, children <int>, babies <int>,
#   meal <chr>, country <chr>, market_segment <chr>,
#   distribution_channel <chr>, is_repeated_guest <lgl>,
#   previous_cancellations <int>, previous_bookings_not_canceled <int>, …

3.8 filter for multiple criteria

hotels |> filter(
  babies >= 1,
  children >= 1
  ) |> 
  select(hotel, adults, babies, children)

# A tibble: 175 × 4
   hotel        adults babies children
   <chr>         <int>  <int>    <int>
 1 Resort Hotel      2      1        1
 2 Resort Hotel      2      1        1
 3 Resort Hotel      2      1        1
 4 Resort Hotel      2      1        1
 5 Resort Hotel      2      1        1
 6 Resort Hotel      2      1        1
 7 Resort Hotel      2      1        1
 8 Resort Hotel      2      1        2
 9 Resort Hotel      2      1        2
10 Resort Hotel      1      1        2
# ℹ 165 more rows
…
This is identical to the logical AND &.

hotels |> filter(babies >= 1 & children >= 1)

delivers the same. (Spot the tiny difference!)

3.9 filter for more complex criteria

hotels |> filter(
  babies >= 1 | children >= 1
  ) |> 
  select(hotel, adults, babies, children)

# A tibble: 9,332 × 4
   hotel        adults babies children
   <chr>         <int>  <int>    <int>
 1 Resort Hotel      2      0        1
 2 Resort Hotel      2      0        2
 3 Resort Hotel      2      0        2
 4 Resort Hotel      2      0        2
 5 Resort Hotel      2      0        1
 6 Resort Hotel      2      0        1
 7 Resort Hotel      1      0        2
 8 Resort Hotel      2      0        2
 9 Resort Hotel      2      1        0
10 Resort Hotel      2      1        0
# ℹ 9,322 more rows
…
6 Data Transformation

6.1 Create a new variable with mutate

hotels |>
  mutate(little_ones = children + babies) |>
  select(children, babies, little_ones) |>
  arrange(desc(little_ones)) # This sorts in descending order. See the big things!

# A tibble: 119,390 × 3
   children babies little_ones
      <int>  <int>       <int>
 1       10      0          10
 2        0     10          10
 3        0      9           9
 4        2      1           3
 5        2      1           3
 6        2      1           3
 7        3      0           3
 8        2      1           3
 9        2      1           3
10        3      0           3
# ℹ 119,380 more rows
…
# A tibble: 2 × 2
  hotel        mean_adr
  <chr>           <dbl>
1 City Hotel      105. 
2 Resort Hotel     95.0

Look at the grouping attributes:

hotels |>
  group_by(hotel)

# A tibble: 119,390 × 32
# Groups:   hotel [2]
   hotel        is_canceled lead_time arrival_date_year arrival_date_month
   <chr>        <lgl>           <int>             <int> <chr>             
 1 Resort Hotel FALSE             342              2015 July              
 2 Resort Hotel FALSE             737              2015 July              
 3 Resort Hotel FALSE               7              2015 July              
 4 Resort Hotel FALSE              13              2015 July              
 5 Resort Hotel FALSE              14              2015 July              
 6 Resort Hotel FALSE              14              2015 July              
 7 Resort Hotel FALSE               0              2015 July              
 8 Resort Hotel FALSE               9              2015 July              
 9 Resort Hotel TRUE               85              2015 July              
10 Resort Hotel TRUE               75              2015 July              
# ℹ 119,380 more rows
# ℹ 27 more variables: arrival_date_week_number <int>,
#   arrival_date_day_of_month <int>, stays_in_weekend_nights <int>,
#   stays_in_week_nights <int>, adults <int>, children <int>, babies <int>,
#   meal <chr>, country <chr>, market_segment <chr>,
#   distribution_channel <chr>, is_repeated_guest <lgl>,
#   previous_cancellations <int>, previous_bookings_not_canceled <int>, …
…
