W#04: Relational Data, Math: Sets and Functions, Programming Functions – Data Science Concepts / Data Science Tools
…
# A tibble: 3 × 6
   year month   day  hour origin     n
  <int> <int> <int> <int> <chr>  <int>
1  2013    11     3     1 EWR        2
2  2013    11     3     1 JFK        2
3  2013    11     3     1 LGA        2

OK, here 3 observations are twice, one for each airport. Probably this is related to Daylight saving time in the US. In Fall clocks are turned back 1 hour. So this hour appears twice.

Example: Without hour it is not a key

weather |> count(year, month, day, origin) |> filter(n > 1)

# A tibble: 1,092 × 5
    year month   day origin     n
   <int> <int> <int> <chr>  <int>
 1  2013     1     1 EWR       22
 2  2013     1     1 JFK       22
 3  2013     1     1 LGA       23
 4  2013     1     2 EWR       24
 5  2013     1     2 JFK       24
 6  2013     1     2 LGA       24
 7  2013     1     3 EWR       24
 8  2013     1     3 JFK       24
 9  2013     1     3 LGA       24
10  2013     1     4 EWR       24
# ℹ 1,082 more rows
…
Relations are typically 1-to-many. Each plane has many flights

Relations can also be many-to-many. Airlines can fly to many airports; airport can host many airplanes.

2.14 Joining when key names differ?

We have to specify the key relation with a named vector in the by argument.

dim(flights)

[1] 336776     19

flights |> left_join(airports, by = c("dest" = "faa"))

# A tibble: 336,776 × 26
    year month   day dep_time sched_dep_time dep_delay arr_time sched_arr_time
   <int> <int> <int>    <int>          <int>     <dbl>    <int>          <int>
 1  2013     1     1      517            515         2      830            819
 2  2013     1     1      533            529         4      850            830
 3  2013     1     1      542            540         2      923            850
 4  2013     1     1      544            545        -1     1004           1022
 5  2013     1     1      554            600        -6      812            837
 6  2013     1     1      554            558        -4      740            728
 7  2013     1     1      555            600        -5      913            854
 8  2013     1     1      557            600        -3      709            723
 9  2013     1     1      557            600        -3      838            846
10  2013     1     1      558            600        -2      753            745
# ℹ 336,766 more rows
# ℹ 18 more variables: arr_delay <dbl>, carrier <chr>, flight <int>,
#   tailnum <chr>, origin <chr>, dest <chr>, air_time <dbl>, distance <dbl>,
#   hour <dbl>, minute <dbl>, time_hour <dttm>, name <chr>, lat <dbl>,
#   lon <dbl>, alt <dbl>, tz <dbl>, dst <chr>, tzone <chr>

The alternative (new default) version is to use the join_by function using the comparison sign ==.

flights |> left_join(airports, join_by("dest" == "faa"))

# A tibble: 336,776 × 26
    year month   day dep_time sched_dep_time dep_delay arr_time sched_arr_time
   <int> <int> <int>    <int>          <int>     <dbl>    <int>          <int>
 1  2013     1     1      517            515         2      830            819
 2  2013     1     1      533            529         4      850            830
 3  2013     1     1      542            540         2      923            850
 4  2013     1     1      544            545        -1     1004           1022
 5  2013     1     1      554            600        -6      812            837
 6  2013     1     1      554            558        -4      740            728
 7  2013     1     1      555            600        -5      913            854
 8  2013     1     1      557            600        -3      709            723
 9  2013     1     1      557            600        -3      838            846
10  2013     1     1      558            600        -2      753            745
# ℹ 336,766 more rows
# ℹ 18 more variables: arr_delay <dbl>, carrier <chr>, flight <int>,
#   tailnum <chr>, origin <chr>, dest <chr>, air_time <dbl>, distance <dbl>,
#   hour <dbl>, minute <dbl>, time_hour <dttm>, name <chr>, lat <dbl>,
#   lon <dbl>, alt <dbl>, tz <dbl>, dst <chr>, tzone <chr>

Why does the number of rows stays the same after joining?

. . .

faa is a primary key in airports. It is matched with dest as the foreign key in flights.

2.15 left_join is essentially right_join with switched dataframes

airports_right_flights <- airports |> right_join(flights, by = c("faa" = "dest"))
airports_right_flights 

# A tibble: 336,776 × 26
   faa   name       lat   lon   alt    tz dst   tzone  year month   day dep_time
   <chr> <chr>    <dbl> <dbl> <dbl> <dbl> <chr> <chr> <int> <int> <int>    <int>
 1 ABQ   Albuque…  35.0 -107.  5355    -7 A     Amer…  2013    10     1     1955
 2 ABQ   Albuque…  35.0 -107.  5355    -7 A     Amer…  2013    10     2     2010
 3 ABQ   Albuque…  35.0 -107.  5355    -7 A     Amer…  2013    10     3     1955
 4 ABQ   Albuque…  35.0 -107.  5355    -7 A     Amer…  2013    10     4     2017
 5 ABQ   Albuque…  35.0 -107.  5355    -7 A     Amer…  2013    10     5     1959
 6 ABQ   Albuque…  35.0 -107.  5355    -7 A     Amer…  2013    10     6     1959
 7 ABQ   Albuque…  35.0 -107.  5355    -7 A     Amer…  2013    10     7     2002
 8 ABQ   Albuque…  35.0 -107.  5355    -7 A     Amer…  2013    10     8     1957
 9 ABQ   Albuque…  35.0 -107.  5355    -7 A     Amer…  2013    10     9     1957
10 ABQ   Albuque…  35.0 -107.  5355    -7 A     Amer…  2013    10    10     2011
# ℹ 336,766 more rows
# ℹ 14 more variables: sched_dep_time <int>, dep_delay <dbl>, arr_time <int>,
#   sched_arr_time <int>, arr_delay <dbl>, carrier <chr>, flight <int>,
#   tailnum <chr>, origin <chr>, air_time <dbl>, distance <dbl>, hour <dbl>,
#   minute <dbl>, time_hour <dttm>
…
In a join where keys have different column names the name of the first dataframe survives (unless you use keep = TRUE). Here, faa instead of dest

The columns from the first dataframe come first

The order of rows is taken from the first dataframe, while duplication and dropping of variables is determined by the second dataframe (because it is a right_join)

Using the fact that flights seem to be ordered by year, month, day, dep_time we can re-arrange:

airports_right_flights |> 
  rename(dest = faa) |> 
  select(names(flights)) |> # Use order of flights
  arrange(year, month, day, dep_time)

# A tibble: 336,776 × 19
    year month   day dep_time sched_dep_time dep_delay arr_time sched_arr_time
   <int> <int> <int>    <int>          <int>     <dbl>    <int>          <int>
 1  2013     1     1      517            515         2      830            819
 2  2013     1     1      533            529         4      850            830
 3  2013     1     1      542            540         2      923            850
 4  2013     1     1      544            545        -1     1004           1022
 5  2013     1     1      554            600        -6      812            837
 6  2013     1     1      554            558        -4      740            728
 7  2013     1     1      555            600        -5      913            854
 8  2013     1     1      557            600        -3      709            723
 9  2013     1     1      557            600        -3      838            846
10  2013     1     1      558            600        -2      924            917
# ℹ 336,766 more rows
# ℹ 11 more variables: arr_delay <dbl>, carrier <chr>, flight <int>,
#   tailnum <chr>, origin <chr>, dest <chr>, air_time <dbl>, distance <dbl>,
#   hour <dbl>, minute <dbl>, time_hour <dttm>
…
2.16 left_join with reversed dataframes

dim(airports)

[1] 1458    8

dim(flights)

[1] 336776     19

airports |> 
  left_join(flights, by = c("faa" = "dest"))

# A tibble: 330,531 × 26
   faa   name      lat    lon   alt    tz dst   tzone  year month   day dep_time
   <chr> <chr>   <dbl>  <dbl> <dbl> <dbl> <chr> <chr> <int> <int> <int>    <int>
 1 04G   Lansdo…  41.1  -80.6  1044    -5 A     Amer…    NA    NA    NA       NA
 2 06A   Moton …  32.5  -85.7   264    -6 A     Amer…    NA    NA    NA       NA
 3 06C   Schaum…  42.0  -88.1   801    -6 A     Amer…    NA    NA    NA       NA
 4 06N   Randal…  41.4  -74.4   523    -5 A     Amer…    NA    NA    NA       NA
 5 09J   Jekyll…  31.1  -81.4    11    -5 A     Amer…    NA    NA    NA       NA
 6 0A9   Elizab…  36.4  -82.2  1593    -5 A     Amer…    NA    NA    NA       NA
 7 0G6   Willia…  41.5  -84.5   730    -5 A     Amer…    NA    NA    NA       NA
 8 0G7   Finger…  42.9  -76.8   492    -5 A     Amer…    NA    NA    NA       NA
 9 0P2   Shoest…  39.8  -76.6  1000    -5 U     Amer…    NA    NA    NA       NA
10 0S9   Jeffer…  48.1 -123.    108    -8 A     Amer…    NA    NA    NA       NA
# ℹ 330,521 more rows
# ℹ 14 more variables: sched_dep_time <int>, dep_delay <dbl>, arr_time <int>,
#   sched_arr_time <int>, arr_delay <dbl>, carrier <chr>, flight <int>,
#   tailnum <chr>, origin <chr>, air_time <dbl>, distance <dbl>, hour <dbl>,
#   minute <dbl>, time_hour <dttm>
…
