W#10: Overfitting, Clustering Algorithms, Bias and Diversity in Crowd Wisdom – Data Science Concepts / Data Science Tools
…
1.6 Make predictions

email_pred_test <- predict(email_fit, email_test) |>
 bind_cols(email_test) 
email_pred_train <- predict(email_fit, email_train) |>
 bind_cols(email_train) 
email_pred_test

# A tibble: 1,177 × 22
   .pred_class spam  to_multiple from     cc sent_email time               
   <fct>       <fct> <fct>       <fct> <int> <fct>      <dttm>             
 1 0           0     0           1         0 0          2012-01-01 17:00:32
 2 0           0     0           1         0 0          2012-01-01 11:04:46
 3 0           0     0           1         1 1          2012-01-01 20:38:32
 4 0           0     0           1         0 0          2012-01-02 03:05:47
 5 0           0     1           1         3 0          2012-01-02 14:41:11
 6 0           0     1           1         1 0          2012-01-02 16:27:07
 7 0           0     1           1         2 0          2012-01-02 22:24:21
 8 0           0     0           1         0 0          2012-01-03 02:07:17
 9 0           0     0           1         0 0          2012-01-03 10:34:50
10 0           0     0           1         0 0          2012-01-03 15:20:23
# ℹ 1,167 more rows
# ℹ 15 more variables: image <dbl>, attach <dbl>, dollar <dbl>, winner <fct>,
#   inherit <dbl>, viagra <dbl>, password <dbl>, num_char <dbl>,
#   line_breaks <int>, format <fct>, re_subj <fct>, exclaim_subj <dbl>,
#   urgent_subj <fct>, exclaim_mess <dbl>, number <fct>
…
decisiontree_fit_predict_accuracy_by_complexitycost(0)  |> filter(.metric == "accuracy")

# A tibble: 2 × 5
  .metric  .estimator .estimate data  cost_complexity
  <chr>    <chr>          <dbl> <chr>           <dbl>
1 accuracy binary         0.908 test                0
2 accuracy binary         1     train               0

1.11 Collect values in a dataframe

simtest <- seq(0, 0.02, 0.001) |> 
 map_df(\(x) decisiontree_fit_predict_accuracy_by_complexitycost(x))
simtest

# A tibble: 42 × 5
   .metric  .estimator .estimate data  cost_complexity
   <chr>    <chr>          <dbl> <chr>           <dbl>
 1 accuracy binary         0.908 test            0    
 2 accuracy binary         1     train           0    
 3 accuracy binary         0.908 test            0.001
 4 accuracy binary         1.000 train           0.001
 5 accuracy binary         0.914 test            0.002
 6 accuracy binary         0.981 train           0.002
 7 accuracy binary         0.914 test            0.003
 8 accuracy binary         0.972 train           0.003
 9 accuracy binary         0.924 test            0.004
10 accuracy binary         0.954 train           0.004
# ℹ 32 more rows
…
   bill_length_mm     bill_depth_mm flipper_length_mm       body_mass_g 
         43.99279          17.16486         200.96697        4207.05706 

peng_prepped$steps[[3]]$sds # Scaling was step 3

   bill_length_mm     bill_depth_mm flipper_length_mm       body_mass_g 
         5.468668          1.969235         14.015765        805.215802 

Transformed data in $template

peng_transformed <- peng_prepped$template
peng_transformed

# A tibble: 333 × 4
   bill_length_mm bill_depth_mm flipper_length_mm body_mass_g
            <dbl>         <dbl>             <dbl>       <dbl>
 1         -0.895         0.780            -1.42       -0.568
 2         -0.822         0.119            -1.07       -0.506
 3         -0.675         0.424            -0.426      -1.19 
 4         -1.33          1.08             -0.568      -0.940
 5         -0.858         1.74             -0.782      -0.692
 6         -0.931         0.323            -1.42       -0.723
 7         -0.876         1.24             -0.426       0.581
 8         -0.529         0.221            -1.35       -1.25 
 9         -0.986         2.05             -0.711      -0.506
10         -1.72          2.00             -0.212       0.240
# ℹ 323 more rows
…
Computer solutions for different numbers of cluster \(k\)

set.seed(2023)
kclusts <- tibble(k = 1:9) |>
  mutate(
    kclust = map(k, \(x) kmeans(peng_transformed, x)), # kmeans for k=1:9
    tidied = map(kclust, tidy), # tidy extracts the centroids here 
    glanced = map(kclust, glance), # 
    augmented = map(kclust, augment, peng_transformed) # add cluster labels to data
  ) # This is large data frame with nested objects as entries. We unnest next

clusters <- kclusts |> unnest(cols = c(tidied))
clusters

# A tibble: 45 × 11
       k kclust   bill_length_mm bill_depth_mm flipper_length_mm body_mass_g
   <int> <list>            <dbl>         <dbl>             <dbl>       <dbl>
 1     1 <kmeans>      -2.13e-17      1.42e-15          2.43e-16   -1.72e-16
 2     2 <kmeans>       6.54e- 1     -1.10e+ 0          1.16e+ 0    1.10e+ 0
 3     2 <kmeans>      -3.64e- 1      6.12e- 1         -6.45e- 1   -6.11e- 1
 4     3 <kmeans>       6.54e- 1     -1.10e+ 0          1.16e+ 0    1.10e+ 0
 5     3 <kmeans>       6.71e- 1      8.04e- 1         -2.89e- 1   -3.84e- 1
 6     3 <kmeans>      -1.05e+ 0      4.86e- 1         -8.80e- 1   -7.62e- 1
 7     4 <kmeans>      -1.12e+ 0      2.21e- 1         -9.91e- 1   -1.00e+ 0
 8     4 <kmeans>      -6.69e- 1      1.10e+ 0         -5.13e- 1   -1.16e- 1
 9     4 <kmeans>       6.54e- 1     -1.10e+ 0          1.16e+ 0    1.10e+ 0
10     4 <kmeans>       9.55e- 1      6.98e- 1         -2.95e- 1   -5.32e- 1
# ℹ 35 more rows
# ℹ 5 more variables: size <int>, withinss <dbl>, cluster <fct>,
#   glanced <list>, augmented <list>
…
assignments <- kclusts |> unnest(cols = c(augmented))
assignments

# A tibble: 2,997 × 9
       k kclust   tidied           glanced          bill_length_mm bill_depth_mm
   <int> <list>   <list>           <list>                    <dbl>         <dbl>
 1     1 <kmeans> <tibble [1 × 7]> <tibble [1 × 4]>         -0.895         0.780
 2     1 <kmeans> <tibble [1 × 7]> <tibble [1 × 4]>         -0.822         0.119
 3     1 <kmeans> <tibble [1 × 7]> <tibble [1 × 4]>         -0.675         0.424
 4     1 <kmeans> <tibble [1 × 7]> <tibble [1 × 4]>         -1.33          1.08 
 5     1 <kmeans> <tibble [1 × 7]> <tibble [1 × 4]>         -0.858         1.74 
 6     1 <kmeans> <tibble [1 × 7]> <tibble [1 × 4]>         -0.931         0.323
 7     1 <kmeans> <tibble [1 × 7]> <tibble [1 × 4]>         -0.876         1.24 
 8     1 <kmeans> <tibble [1 × 7]> <tibble [1 × 4]>         -0.529         0.221
 9     1 <kmeans> <tibble [1 × 7]> <tibble [1 × 4]>         -0.986         2.05 
10     1 <kmeans> <tibble [1 × 7]> <tibble [1 × 4]>         -1.72          2.00 
# ℹ 2,987 more rows
# ℹ 3 more variables: flipper_length_mm <dbl>, body_mass_g <dbl>,
#   .cluster <fct>
…
