W#11: Final Project, Collaborative Git, Bootstrapping, Cross validation, Bias-Variance Tradeoff – Data Science Concepts / Data Science Tools
…
A bootstrap sample is with replace and of the same size as the original sample:

nrow(galton)

[1] 787

galton |> slice_sample(n = 787, replace = TRUE)

# A tibble: 787 × 2
   Estimate    id
      <dbl> <dbl>
 1     1347   774
 2     1221   489
 3     1112    85
 4     1320   766
 5     1266   697
 6     1145   149
 7     1271   711
 8     1215   442
 9     1238   596
10     1163   198
# ℹ 777 more rows
…
4.7 Bootstrap set: Galton’s Data

The function bootstraps from rsample does this type of bootstrapping for us.

1,000 resamples:

boots_galton <- galton |> bootstraps(times = 1000)
boots_galton

# Bootstrap sampling 
# A tibble: 1,000 × 2
   splits            id           
   <list>            <chr>        
 1 <split [787/295]> Bootstrap0001
 2 <split [787/293]> Bootstrap0002
 3 <split [787/296]> Bootstrap0003
 4 <split [787/303]> Bootstrap0004
 5 <split [787/283]> Bootstrap0005
 6 <split [787/295]> Bootstrap0006
 7 <split [787/295]> Bootstrap0007
 8 <split [787/285]> Bootstrap0008
 9 <split [787/291]> Bootstrap0009
10 <split [787/275]> Bootstrap0010
# ℹ 990 more rows

The column splits contains a list of split objects.

boots_galton$splits[[1]]

<Analysis/Assess/Total>
<787/295/787>

From each split we can extract the bootstrapped resample with analysis.

boots_galton$splits[[1]] |> analysis()

# A tibble: 787 × 2
   Estimate    id
      <dbl> <dbl>
 1     1160   192
 2     1260   678
 3     1147   153
 4     1221   484
 5     1204   373
 6     1165   211
 7     1112    85
 8     1415   780
 9     1081    43
10     1168   220
# ℹ 777 more rows

(The assessment set contains the observations that were not selected randomly in the resample. We do not use it in the following.)

4.8 Bootstrap distribution: Galton’s Data

We iterate with a map function4 over the splits and extract the analysis set and calculate the mean.

boots_galton_mean <- boots_galton |> 
  mutate(
   mean = map_dbl(splits, 
                  \(x) analysis(x)$Estimate |> mean()))
boots_galton_mean

# Bootstrap sampling 
# A tibble: 1,000 × 3
   splits            id             mean
   <list>            <chr>         <dbl>
 1 <split [787/295]> Bootstrap0001 1194.
 2 <split [787/293]> Bootstrap0002 1196.
 3 <split [787/296]> Bootstrap0003 1199.
 4 <split [787/303]> Bootstrap0004 1196.
 5 <split [787/283]> Bootstrap0005 1194.
 6 <split [787/295]> Bootstrap0006 1197.
 7 <split [787/295]> Bootstrap0007 1195.
 8 <split [787/285]> Bootstrap0008 1194.
 9 <split [787/291]> Bootstrap0009 1197.
10 <split [787/275]> Bootstrap0010 1193.
# ℹ 990 more rows
…
# A function to fit a model to a bootstrap sample and tidy the coefficients
fit_split <- function(split) peng_workflow |> fit(data = analysis(split)) |> tidy() 
# Make 1000 bootstrap samples and fit a model to each
boots_peng <- bootstraps(penguins, times = 1000) |> 
  mutate(coefs = map(splits, fit_split))

4.14 Bootstrap data frame

Now we have a column coefs with a list of data frames, each containing the fitted coefficients.

boots_peng

# Bootstrap sampling 
# A tibble: 1,000 × 3
   splits            id            coefs           
   <list>            <chr>         <list>          
 1 <split [344/125]> Bootstrap0001 <tibble [9 × 5]>
 2 <split [344/131]> Bootstrap0002 <tibble [9 × 5]>
 3 <split [344/123]> Bootstrap0003 <tibble [9 × 5]>
 4 <split [344/116]> Bootstrap0004 <tibble [9 × 5]>
 5 <split [344/130]> Bootstrap0005 <tibble [9 × 5]>
 6 <split [344/126]> Bootstrap0006 <tibble [9 × 5]>
 7 <split [344/126]> Bootstrap0007 <tibble [9 × 5]>
 8 <split [344/129]> Bootstrap0008 <tibble [9 × 5]>
 9 <split [344/129]> Bootstrap0009 <tibble [9 × 5]>
10 <split [344/129]> Bootstrap0010 <tibble [9 × 5]>
# ℹ 990 more rows

We can unnest the list column to make a much longer but unnested data frame:

boots_peng |> unnest(coefs)

# A tibble: 9,000 × 7
   splits            id            term    estimate std.error statistic  p.value
   <list>            <chr>         <chr>      <dbl>     <dbl>     <dbl>    <dbl>
 1 <split [344/125]> Bootstrap0001 (Inter… -1972.      630.     -3.13   1.91e- 3
 2 <split [344/125]> Bootstrap0001 specie…  -294.       94.9    -3.10   2.09e- 3
 3 <split [344/125]> Bootstrap0001 specie…   958.      137.      6.97   1.84e-11
 4 <split [344/125]> Bootstrap0001 island…    -1.14     57.7    -0.0197 9.84e- 1
 5 <split [344/125]> Bootstrap0001 island…   -71.9      61.8    -1.16   2.45e- 1
 6 <split [344/125]> Bootstrap0001 bill_l…    22.3       8.00    2.78   5.68e- 3
 7 <split [344/125]> Bootstrap0001 bill_d…    80.1      20.6     3.88   1.26e- 4
 8 <split [344/125]> Bootstrap0001 flippe…    16.8       3.00    5.61   4.40e- 8
 9 <split [344/125]> Bootstrap0001 sexmale   353.       51.2     6.89   2.94e-11
10 <split [344/131]> Bootstrap0002 (Inter… -1945.      585.     -3.33   9.82e- 4
# ℹ 8,990 more rows
…
